…
```
## 
## Jane Eyre: An Autobiography The Tenant of Wildfell Hall 
##                       21001                       18477 
##           Wuthering Heights 
##                       12314
```


```r
head(books,30)
```

```
## # A tibble: 30 x 4
##    gutenberg_id text                title             author       
##           <int> <chr>               <chr>             <chr>        
##  1          768 "Wuthering Heights" Wuthering Heights Brontë, Emily
##  2          768 ""                  Wuthering Heights Brontë, Emily
##  3          768 "by Emily Brontë"   Wuthering Heights Brontë, Emily
##  4          768 ""                  Wuthering Heights Brontë, Emily
##  5          768 ""                  Wuthering Heights Brontë, Emily
##  6          768 ""                  Wuthering Heights Brontë, Emily
##  7          768 ""                  Wuthering Heights Brontë, Emily
##  8          768 "CHAPTER I"         Wuthering Heights Brontë, Emily
##  9          768 ""                  Wuthering Heights Brontë, Emily
## 10          768 ""                  Wuthering Heights Brontë, Emily
## # … with 20 more rows
```
…
```r
bronte_words
```

```
## # A tibble: 471,348 x 5
##    title             author        chapter_number line_number word    
##    <chr>             <chr>                  <dbl>       <int> <chr>   
##  1 Wuthering Heights Brontë, Emily              1           1 1801    
##  2 Wuthering Heights Brontë, Emily              1           1 i       
##  3 Wuthering Heights Brontë, Emily              1           1 have    
##  4 Wuthering Heights Brontë, Emily              1           1 just    
##  5 Wuthering Heights Brontë, Emily              1           1 returned
##  6 Wuthering Heights Brontë, Emily              1           1 from    
##  7 Wuthering Heights Brontë, Emily              1           1 a       
##  8 Wuthering Heights Brontë, Emily              1           1 visit   
##  9 Wuthering Heights Brontë, Emily              1           1 to      
## 10 Wuthering Heights Brontë, Emily              1           1 my      
## # … with 471,338 more rows
```
…
